%!PS-Adobe-3.0 EPSF-3.0
%%Creator: cairo 1.15.10 (http://cairographics.org)
%%CreationDate: Sun Apr 22 13:44:38 2018
%%Pages: 1
%%DocumentData: Clean7Bit
%%LanguageLevel: 2
%%BoundingBox: 0 0 15 15
%%EndComments
%%BeginProlog
50 dict begin
/q { gsave } bind def
/Q { grestore } bind def
/cm { 6 array astore concat } bind def
/w { setlinewidth } bind def
/J { setlinecap } bind def
/j { setlinejoin } bind def
/M { setmiterlimit } bind def
/d { setdash } bind def
/m { moveto } bind def
/l { lineto } bind def
/c { curveto } bind def
/h { closepath } bind def
/re { exch dup neg 3 1 roll 5 3 roll moveto 0 rlineto
      0 exch rlineto 0 rlineto closepath } bind def
/S { stroke } bind def
/f { fill } bind def
/f* { eofill } bind def
/n { newpath } bind def
/W { clip } bind def
/W* { eoclip } bind def
/BT { } bind def
/ET { } bind def
/BDC { mark 3 1 roll /BDC pdfmark } bind def
/EMC { mark /EMC pdfmark } bind def
/cairo_store_point { /cairo_point_y exch def /cairo_point_x exch def } def
/Tj { show currentpoint cairo_store_point } bind def
/TJ {
  {
    dup
    type /stringtype eq
    { show } { -0.001 mul 0 cairo_font_matrix dtransform rmoveto } ifelse
  } forall
  currentpoint cairo_store_point
} bind def
/cairo_selectfont { cairo_font_matrix aload pop pop pop 0 0 6 array astore
    cairo_font exch selectfont cairo_point_x cairo_point_y moveto } bind def
/Tf { pop /cairo_font exch def /cairo_font_matrix where
      { pop cairo_selectfont } if } bind def
/Td { matrix translate cairo_font_matrix matrix concatmatrix dup
      /cairo_font_matrix exch def dup 4 get exch 5 get cairo_store_point
      /cairo_font where { pop cairo_selectfont } if } bind def
/Tm { 2 copy 8 2 roll 6 array astore /cairo_font_matrix exch def
      cairo_store_point /cairo_font where { pop cairo_selectfont } if } bind def
/g { setgray } bind def
/rg { setrgbcolor } bind def
/d1 { setcachedevice } bind def
/cairo_data_source {
  CairoDataIndex CairoData length lt
    { CairoData CairoDataIndex get /CairoDataIndex CairoDataIndex 1 add def }
    { () } ifelse
} def
/cairo_flush_ascii85_file { cairo_ascii85_file status { cairo_ascii85_file flushfile } if } def
/cairo_image { image cairo_flush_ascii85_file } def
/cairo_imagemask { imagemask cairo_flush_ascii85_file } def
%%EndProlog
%%BeginSetup
%%EndSetup
%%Page: 1 1
%%BeginPageSetup
%%PageBoundingBox: 0 0 15 15
%%EndPageSetup
q 0 0 15 15 rectclip
1 0 0 -1 0 15 cm q
0.431373 0.486275 0.6 rg
7.199 0 m 3.227 0 0 3.23 0 7.199 c 0 11.168 3.227 14.398 7.199 14.398 c
 11.168 14.398 14.398 11.168 14.398 7.199 c 14.398 3.23 11.168 0 7.199 0
 c h
13.34 7.199 m 13.34 8.605 12.863 9.898 12.066 10.934 c 11.844 10.758 11.605
 10.285 11.828 9.793 c 12.055 9.297 12.117 8.152 12.062 7.703 c 12.012 7.258
 11.781 6.188 11.152 6.176 c 10.523 6.168 10.094 5.957 9.719 5.215 c 8.945
 3.664 11.172 3.363 10.398 2.508 c 10.184 2.266 9.062 3.496 8.898 1.855 
c 8.887 1.738 9 1.562 9.148 1.379 c 11.582 2.195 13.34 4.496 13.34 7.199
 c h
6.355 1.117 m 6.207 1.406 5.82 1.523 5.586 1.738 c 5.07 2.203 4.852 2.137
 4.574 2.582 c 4.297 3.027 3.402 3.668 3.402 3.992 c 3.402 4.312 3.852 4.695
 4.078 4.621 c 4.305 4.547 4.902 4.551 5.254 4.672 c 5.605 4.797 8.191 4.922
 7.367 7.105 c 7.105 7.801 5.961 7.684 5.656 8.832 c 5.613 9 5.453 9.723
 5.445 9.957 c 5.426 10.32 5.703 11.695 5.352 11.695 c 4.996 11.695 4.047
 10.469 4.047 10.246 c 4.047 10.02 3.801 9.242 3.801 8.57 c 3.801 7.902 
2.664 7.914 2.664 7.023 c 2.664 6.223 3.281 5.824 3.141 5.441 c 3.004 5.059
 1.922 5.047 1.469 4.996 c 2.258 2.949 4.117 1.43 6.355 1.117 c h
5.266 13.027 m 5.637 12.832 5.672 12.578 6.008 12.566 c 6.391 12.551 6.703
 12.418 7.133 12.324 c 7.516 12.238 8.199 11.852 8.801 11.801 c 9.312 11.762
 10.312 11.828 10.582 12.316 c 9.613 12.965 8.449 13.34 7.199 13.34 c 6.523
 13.34 5.875 13.227 5.266 13.027 c h
5.266 13.027 m f
Q Q
showpage
%%Trailer
end
%%EOF
