%!PS-Adobe-3.0 EPSF-3.0
%%Creator: cairo 1.15.10 (http://cairographics.org)
%%CreationDate: Sun Apr 22 13:43:35 2018
%%Pages: 1
%%DocumentData: Clean7Bit
%%LanguageLevel: 2
%%BoundingBox: 0 0 15 9
%%EndComments
%%BeginProlog
50 dict begin
/q { gsave } bind def
/Q { grestore } bind def
/cm { 6 array astore concat } bind def
/w { setlinewidth } bind def
/J { setlinecap } bind def
/j { setlinejoin } bind def
/M { setmiterlimit } bind def
/d { setdash } bind def
/m { moveto } bind def
/l { lineto } bind def
/c { curveto } bind def
/h { closepath } bind def
/re { exch dup neg 3 1 roll 5 3 roll moveto 0 rlineto
      0 exch rlineto 0 rlineto closepath } bind def
/S { stroke } bind def
/f { fill } bind def
/f* { eofill } bind def
/n { newpath } bind def
/W { clip } bind def
/W* { eoclip } bind def
/BT { } bind def
/ET { } bind def
/BDC { mark 3 1 roll /BDC pdfmark } bind def
/EMC { mark /EMC pdfmark } bind def
/cairo_store_point { /cairo_point_y exch def /cairo_point_x exch def } def
/Tj { show currentpoint cairo_store_point } bind def
/TJ {
  {
    dup
    type /stringtype eq
    { show } { -0.001 mul 0 cairo_font_matrix dtransform rmoveto } ifelse
  } forall
  currentpoint cairo_store_point
} bind def
/cairo_selectfont { cairo_font_matrix aload pop pop pop 0 0 6 array astore
    cairo_font exch selectfont cairo_point_x cairo_point_y moveto } bind def
/Tf { pop /cairo_font exch def /cairo_font_matrix where
      { pop cairo_selectfont } if } bind def
/Td { matrix translate cairo_font_matrix matrix concatmatrix dup
      /cairo_font_matrix exch def dup 4 get exch 5 get cairo_store_point
      /cairo_font where { pop cairo_selectfont } if } bind def
/Tm { 2 copy 8 2 roll 6 array astore /cairo_font_matrix exch def
      cairo_store_point /cairo_font where { pop cairo_selectfont } if } bind def
/g { setgray } bind def
/rg { setrgbcolor } bind def
/d1 { setcachedevice } bind def
/cairo_data_source {
  CairoDataIndex CairoData length lt
    { CairoData CairoDataIndex get /CairoDataIndex CairoDataIndex 1 add def }
    { () } ifelse
} def
/cairo_flush_ascii85_file { cairo_ascii85_file status { cairo_ascii85_file flushfile } if } def
/cairo_image { image cairo_flush_ascii85_file } def
/cairo_imagemask { imagemask cairo_flush_ascii85_file } def
%%EndProlog
%%BeginSetup
%%EndSetup
%%Page: 1 1
%%BeginPageSetup
%%PageBoundingBox: 0 0 15 9
%%EndPageSetup
q 0 0 15 9 rectclip
1 0 0 -1 0 9 cm q
0.431373 0.486275 0.6 rg
1.18 0.965 m 1.547 1.16 6.617 3.887 6.805 3.984 c 6.996 4.086 7.238 4.137
 7.484 4.137 c 7.73 4.137 7.977 4.086 8.164 3.984 c 8.352 3.887 13.422 1.16
 13.789 0.965 c 14.156 0.766 14.504 0 13.828 0 c 1.141 0 l 0.469 0 0.816
 0.766 1.18 0.965 c h
13.961 2.617 m 13.543 2.832 8.418 5.504 8.164 5.637 c 7.91 5.77 7.73 5.785
 7.484 5.785 c 7.238 5.785 7.059 5.77 6.805 5.637 c 6.551 5.504 1.457 2.832
 1.039 2.617 c 0.746 2.465 0.75 2.641 0.75 2.781 c 0.75 2.918 0.75 8.25 
0.75 8.25 c 0.75 8.566 1.176 9 1.5 9 c 13.5 9 l 13.824 9 14.25 8.566 14.25
 8.25 c 14.25 8.25 14.25 2.918 14.25 2.781 c 14.25 2.645 14.254 2.465 13.961
 2.617 c h
13.961 2.617 m f
Q Q
showpage
%%Trailer
end
%%EOF
